-------------------------------------------------------------------------------
Test set: fr.ufds.cc.AppTest
-------------------------------------------------------------------------------
Tests run: 0, Failures: 0, Errors: 0, Skipped: 0, Time elapsed: 0 sec - in fr.ufds.cc.AppTest
